\relax 
\providecommand\hyper@newdestlabel[2]{}
\providecommand\HyperFirstAtBeginDocument{\AtBeginDocument}
\HyperFirstAtBeginDocument{\ifx\hyper@anchor\@undefined
\global\let\oldcontentsline\contentsline
\gdef\contentsline#1#2#3#4{\oldcontentsline{#1}{#2}{#3}}
\global\let\oldnewlabel\newlabel
\gdef\newlabel#1#2{\newlabelxx{#1}#2}
\gdef\newlabelxx#1#2#3#4#5#6{\oldnewlabel{#1}{{#2}{#3}}}
\AtEndDocument{\ifx\hyper@anchor\@undefined
\let\contentsline\oldcontentsline
\let\newlabel\oldnewlabel
\fi}
\fi}
\global\let\hyper@last\relax 
\gdef\HyperFirstAtBeginDocument#1{#1}
\providecommand\HyField@AuxAddToFields[1]{}
\providecommand\HyField@AuxAddToCoFields[2]{}
\providecommand\pbs@newkey[2]{}
\providecommand\pbs@seq@push@cx[2]{}
\providecommand\pbs@at@end@dvi@check{}
\pbs@at@end@dvi@check
\providecommand\@anim@newkey[2]{}
\pbs@newkey{pbs@last@page}{1}
\pbs@newkey{pbs@last@page}{2}
\pbs@newkey{pbs@last@page}{3}
\@writefile{toc}{\contentsline {section}{\numberline {1}Introduction}{3}{section.1}}
\@writefile{toc}{\contentsline {section}{\numberline {2}Arriv\IeC {\'e}e de la marche \IeC {\`a} une interface}{3}{section.2}}
\@writefile{toc}{\contentsline {subsection}{\numberline {2.1}En 2D}{3}{subsection.2.1}}
\newlabel{eq:Txn_2d_01}{{1}{3}{En 2D}{equation.2.1}{}}
\pbs@newkey{pbs@last@page}{4}
\@writefile{lof}{\contentsline {figure}{\numberline {1}{\ignorespaces }}{4}{figure.1}}
\newlabel{fig:cavity}{{1}{4}{}{figure.1}{}}
\newlabel{eq:Txn_2d_02}{{2}{4}{En 2D}{equation.2.2}{}}
\newlabel{eq:Txn_2d_03}{{3}{4}{En 2D}{equation.2.3}{}}
\pbs@newkey{pbs@last@page}{5}
\@writefile{lof}{\contentsline {figure}{\numberline {2}{\ignorespaces }}{5}{figure.2}}
\newlabel{fig:nullP_e20}{{2}{5}{}{figure.2}{}}
\@writefile{lof}{\contentsline {subfigure}{\numberline{(a)}{\ignorespaces {}}}{5}{figure.2}}
\@writefile{lof}{\contentsline {subfigure}{\numberline{(b)}{\ignorespaces {}}}{5}{figure.2}}
\@writefile{lof}{\contentsline {figure}{\numberline {3}{\ignorespaces }}{5}{figure.3}}
\newlabel{fig:positiveP_e20}{{3}{5}{}{figure.3}{}}
\@writefile{lof}{\contentsline {subfigure}{\numberline{(a)}{\ignorespaces {}}}{5}{figure.3}}
\@writefile{lof}{\contentsline {subfigure}{\numberline{(b)}{\ignorespaces {}}}{5}{figure.3}}
\pbs@newkey{pbs@last@page}{6}
\@writefile{lof}{\contentsline {figure}{\numberline {4}{\ignorespaces }}{6}{figure.4}}
\newlabel{fig:positiveP_e200}{{4}{6}{}{figure.4}{}}
\@writefile{lof}{\contentsline {subfigure}{\numberline{(a)}{\ignorespaces {}}}{6}{figure.4}}
\@writefile{lof}{\contentsline {subfigure}{\numberline{(b)}{\ignorespaces {}}}{6}{figure.4}}
\@writefile{lof}{\contentsline {figure}{\numberline {5}{\ignorespaces }}{6}{figure.5}}
\newlabel{fig:walks_end}{{5}{6}{}{figure.5}{}}
\pbs@newkey{pbs@last@page}{7}
\newlabel{eq:Txn_2d_04}{{5}{7}{En 2D}{equation.2.5}{}}
\newlabel{eq:alpha_2D}{{6}{7}{En 2D}{equation.2.6}{}}
\@writefile{toc}{\contentsline {subsection}{\numberline {2.2}En 3D}{7}{subsection.2.2}}
\newlabel{eq:Txn_3d_01}{{7}{7}{En 3D}{equation.2.7}{}}
\newlabel{eq:Txn_3d_02}{{8}{7}{En 3D}{equation.2.8}{}}
\newlabel{eq:Txn_3d_03}{{10}{7}{En 3D}{equation.2.10}{}}
\pbs@newkey{pbs@last@page}{8}
\newlabel{eq:alpha_3D}{{11}{8}{En 3D}{equation.2.11}{}}
\@writefile{toc}{\contentsline {section}{\numberline {3}D\IeC {\'e}part de la marche depuis une interface}{8}{section.3}}
\@writefile{toc}{\contentsline {subsection}{\numberline {3.1}Depuis une interface entre deux solides}{8}{subsection.3.1}}
\@writefile{lof}{\contentsline {figure}{\numberline {6}{\ignorespaces }}{8}{figure.6}}
\newlabel{fig:walks_start_between_solids}{{6}{8}{}{figure.6}{}}
\@writefile{lof}{\contentsline {subfigure}{\numberline{(a)}{\ignorespaces {}}}{8}{figure.6}}
\@writefile{lof}{\contentsline {subfigure}{\numberline{(b)}{\ignorespaces {}}}{8}{figure.6}}
\newlabel{eq:T2solids_00}{{12}{8}{Depuis une interface entre deux solides}{equation.3.12}{}}
\pbs@newkey{pbs@last@page}{9}
\@writefile{toc}{\contentsline {subsubsection}{\numberline {3.1.1}Sans r\IeC {\'e}sistance thermique \IeC {\`a} l'interface}{9}{subsubsection.3.1.1}}
\newlabel{eq:T2solids_01}{{13}{9}{Sans résistance thermique à l'interface}{equation.3.13}{}}
\newlabel{eq:alambda}{{15}{9}{Sans résistance thermique à l'interface}{equation.3.15}{}}
\newlabel{eq:TgTd_01}{{16}{9}{Sans résistance thermique à l'interface}{equation.3.16}{}}
\newlabel{eq:Tp}{{17}{9}{Sans résistance thermique à l'interface}{equation.3.17}{}}
\@writefile{toc}{\contentsline {subsubsection}{\numberline {3.1.2}Avec r\IeC {\'e}sistance thermique \IeC {\`a} l'interface}{9}{subsubsection.3.1.2}}
\newlabel{eq:T2solids_02}{{19}{9}{Avec résistance thermique à l'interface}{equation.3.19}{}}
\pbs@newkey{pbs@last@page}{10}
\newlabel{eq:TgTd_02}{{22}{10}{Avec résistance thermique à l'interface}{equation.3.22}{}}
\@writefile{toc}{\contentsline {subsection}{\numberline {3.2}Depuis une interface entre un solide et un fluide}{10}{subsection.3.2}}
\pbs@newkey{pbs@last@page}{11}
\@writefile{lof}{\contentsline {figure}{\numberline {7}{\ignorespaces }}{11}{figure.7}}
\newlabel{fig:walks_start_with_fluid}{{7}{11}{}{figure.7}{}}
\newlabel{eq:Tdelta}{{26}{11}{Depuis une interface entre un solide et un fluide}{equation.3.26}{}}
